<svg xmlns="http://www.w3.org/2000/svg" width="22" height="19" viewBox="0 0 22 19">
    <g fill="none" fill-rule="evenodd">
        <path d="M0 0H24V24H0z" transform="translate(-1 -3)"/>
        <path fill="#2C3F58" fill-rule="nonzero" d="M1 21.333c0 .277.224.5.5.5s.5-.223.5-.5H1zm21 0c0 .277.224.5.5.5s.5-.223.5-.5h-1zM2 16.5v-3H1v3h1zm20-3v3h1v-3h-1zM1.5 17h21v-1h-21v1zm.5 4.333V19.5H1v1.833h1zM2 19.5v-3H1v3h1zm20-3v3h1v-3h-1zm0 3v1.833h1V19.5h-1zM1.5 20h21v-1h-21v1zM4 11.5v-7H3v7h1zM4.5 4h15V3h-15v1zm15.5.5v7h1v-7h-1zM3.5 12h3.167v-1H3.5v1zm3.167 0h10.666v-1H6.667v1zm10.666 0H20.5v-1h-3.167v1zM19.5 4c.276 0 .5.224.5.5h1c0-.828-.672-1.5-1.5-1.5v1zM4 4.5c0-.276.224-.5.5-.5V3C3.672 3 3 3.672 3 4.5h1zm19 9c0-1.38-1.12-2.5-2.5-2.5v1c.828 0 1.5.672 1.5 1.5h1zm-21 0c0-.828.672-1.5 1.5-1.5v-1C2.12 11 1 12.12 1 13.5h1z" transform="translate(-1 -3)"/>
        <path stroke="#2C3F58" d="M6.5 10c0-.828.672-1.5 1.5-1.5h8c.828 0 1.5.672 1.5 1.5h0c0 .828-.672 1.5-1.5 1.5H8c-.828 0-1.5-.672-1.5-1.5h0z" transform="translate(-1 -3)"/>
    </g>
</svg>
